%AI5_BeginLayer
1 1 1 1 0 0 1 0 79 128 255 0 50 0 Lb
(Layer 1) Ln
0 AE
%_/ArtDictionary :
%_/XMLUID : (Layer_1) ; (AI10_ArtUID) ,
%_;
%_
0 A
0 Xw
1 Ap
8 As
0 D
0 O
0 0 0 0 k
0 R
0 0 0 1 K
0 1 0 0 0 Xy
0 J 0 j 1 w 10 M []0 d
0 XR
179 -218 m
77.5 -218 l
51.2664743830374 -218 30 -196.733525616963 30 -170.5 c
30 -56.5 l
30 -46.2827321281302 38.2827321281302 -38 48.5 -38 c
161.00018 -38 l
215.676270821994 -38 260 -82.323729178006 260 -136.99982 c
260 -137 l
260 -181.735064736295 223.735064736295 -218 179 -218 c
b
%_/ArtDictionary :
%_/Dictionary :
%_/Dictionary :
%_8038 /Real (ai::Rectangle::CenterX) ,
%_230 /Real (ai::Rectangle::Width) ,
%_7898.00000000045 /Real (ai::Rectangle::CenterY) ,
%_0 /Real (ai::Rectangle::Angle) ,
%_180.000000000899 /Real (ai::Rectangle::Height) ,
%_3 /Int (ai::Rectangle::InitialQuadrant) ,
%_1 /Bool (ai::Rectangle::Clockwise) ,
%_(Normal) /UnicodeString (ai::Rectangle::CornerType::0) ,
%_(Absolute) /UnicodeString (ai::Rectangle::RoundingType::0) ,
%_81.0000000011651 /Real (ai::Rectangle::CornerRadius::0) ,
%_(Normal) /UnicodeString (ai::Rectangle::CornerType::1) ,
%_(Absolute) /UnicodeString (ai::Rectangle::RoundingType::1) ,
%_(Normal) /UnicodeString (ai::Rectangle::CornerType::3) ,
%_98.99982 /Real (ai::Rectangle::CornerRadius::3) ,
%_(Absolute) /UnicodeString (ai::Rectangle::RoundingType::3) ,
%_(Normal) /UnicodeString (ai::Rectangle::CornerType::2) ,
%_47.5000000003714 /Real (ai::Rectangle::CornerRadius::1) ,
%_(Absolute) /UnicodeString (ai::Rectangle::RoundingType::2) ,
%_18.5 /Real (ai::Rectangle::CornerRadius::2) ,
%_; (ai::LiveShape::Params) ,
%_(ai::Rectangle) /UnicodeString (ai::LiveShape::HandlerName) ,
%_; (ai::LiveShape) ,
%_;
%_
LB
%AI5_EndLayer--
